[
	{
		"name":"basic-function-1",
		"request":
		{
			"version":1,
			"function":"new-actor",
			"actor":"/actor-create-test"
		},
		"response":
		{
			"version":1,
			"function":"result",
			"actor":"/actor-create-test"
		}
	},
	{
		"name":"basic-function-2",
		"request":
		{
			"version":1,
			"function":"get-object",
			"object-id":"/actor-create-test/inbox"
		},
		"response":
		{
			"version":1,
			"function":"result",
			"object":{
				"@id":"/actor-create-test/inbox",
				"@type":"OrderedCollection"
			}
		}
	},
	{
		"name":"basic-function-3",
		"request":
		{
			"version":1,
			"function":"post-outbox",
			"actor":"/actor-create-test",
			"object":{
				"@type":"Create",
				"object":{
					"@type":"Note",
					"summary":"test",
					"content":"blah blah"
				}
			}
		},
		"response":
		{
			"version":1,
			"function":"result",
			"object-id":"{create=}"
		}
	},
	{
		"name":"basic-function-4",
		"request":
		{
			"version":1,
			"function":"get-object",
			"object-id":"{create}"
		},
		"response":
		{
			"version":1,
			"function":"result",
			"object":{
				"@id":"{create}",
				"@type":"Create",
				"origin":"/actor-create-test",
				"attributedTo":"/actor-create-test",
				"to":[],
				"bto":[],
				"cc":[],
				"bcc":[],
				"audience":[],
				"object":{
					"@id":"{object=}",
					"@type":"Note",
					"attributedTo":"/actor-create-test",
					"audience":[],
					"to":[],
					"bto":[],
					"bcc":[],
					"cc":[],
					"content":"blah blah",
					"summary":"test"
				}
			}
		}
	},
	{
		"name":"basic-function-5",
		"request":
		{
			"version":1,
			"function":"delete-actor",
			"actor":"/actor-create-test"
		},
		"response":
		{
			"version":1,
			"function":"result"
		}
	}
]
